[
  {
    "id": "aintree", "lat": 53.4735, "lon": 2.9541
  },
  {
    "id": "kempton", "lat": 51.4180, "lon": 0.4066
  },
  {
    "id": "sandown", "lat": 51.3733, "lon": 0.3620
  },
  {
    "id": "lingfield", "lat": 51.1698, "lon": 0.0063
  },
  {
    "id": "curragh", "lat": 53.1677, "lon": 6.8396
  },
  {
    "id": "epsom", "lat": 51.3061, "lon": 0.2560
  },
  {
    "id": "ascot", "lat": 51.4122, "lon": 0.6795
  },
  {
    "id": "goodwood", "lat": 50.8916, "lon": 0.7435
  },
  {
    "id": "cheltenham", "lat": 51.9194, "lon": 2.0680
  },
  {
    "id": "wincanton", "lat": 51.0668, "lon": 2.4148
  },
  {
    "id": "punchestown", "lat": 53.1858, "lon": 6.6293
  },
  {
    "id": "redcar", "lat": 54.6106, "lon": 1.0633
  },
  {
    "id": "bangar", "lat": 53.0040, "lon": 2.9094
  }
]
